{
  "catalog": [
	{
		"name": "Australian Geology",
		"type": "group",
		"items": [
		{
			"name": "Surface Geology",
			"type": "esri-mapServer",
			"url": "http://services.ga.gov.au/site_1/rest/services/GA_Surface_Geology/MapServer",
			"rectangle": [
				"105.930454436693",
				"-43.74050960205765",
				"162.097118856693",
				"-7.92768801894694"
			],
			"dataCustodian": "[Geoscience Australia](http://www.ga.gov.au/)",
			"info": [
			{
				"name": "Licence",
				"content": "[Creative Commons Attribution 4.0 International (CC BY 4.0)](http://creativecommons.org/licenses/by/4.0/)"
			}
			],
			"isShown": true,
			"isLegendVisible": false,
			"opacity": 0.6
		}
		]
	},
	{
		"name": "Basins",
		"type": "group",
		"items": [
		{
		"name": "Beetaloo Basin",
		"type": "esri-mapServer",
		"url": "http://ec2-52-65-100-243.ap-southeast-2.compute.amazonaws.com:8080/gis/rest/services/Beetaloo_Basin/MapServer",
		"rectangle": [
			"105.930454436693",
			"-43.74050960205765",
			"162.097118856693",
			"-7.92768801894694"
		],
		"dataCustodian": "[Geoscience Australia](http://www.ga.gov.au/)",
		"info": [
		{
			"name": "Licence",
			"content": "[Creative Commons Attribution 4.0 International (CC BY 4.0)](http://creativecommons.org/licenses/by/4.0/)"
		}
		],
		"isShown": true,
		"isLegendVisible": false,
		"opacity": 1.0
		}
		]
	}
	],
	"baseMapName": "Australia Topography",
	"homeCamera": {
		"west": 127,
		"east": 139,
		"north": -10,
		"south": -19
	}
}